{
  "data": [
    {
      "id": "bastion",
      "name": "Bastion",
      "description": "A massive, heavily armored ARC unit, built around a terrifying, fully automatic minigun. It rarely moves without air support overhead, which helps it pin down and suppress Raider movement. Listen for its loud, distinct screech—that's your warning before it unleashes a three-second hail of bullets toward the last known enemy position.",
      "icon": "https://unhbvkszwhczbjxgetgk.supabase.co/storage/v1/object/public/images/arc-raiders/icons/bastion.webp",
      "image": "https://unhbvkszwhczbjxgetgk.supabase.co/storage/v1/object/public/images/arc-raiders/images/bastion.webp",
      "created_at": "2025-10-08T11:16:51.624713+00:00",
      "updated_at": "2025-11-04T15:53:56.05961+00:00",
      "loot": [
        {
          "id": "bc4a3a1e-0107-49f9-9199-6a6c70371882",
          "item": {
            "id": "arc-alloy",
            "icon": "https://cdn.metaforge.app/arc-raiders/icons/arc-alloy.webp",
            "name": "ARC Alloy",
            "rarity": "Uncommon",
            "item_type": "Topside Material"
          },
          "item_id": "arc-alloy",
          "created_at": "2025-11-04T15:53:56.825634+00:00"
        },
        {
          "id": "1e0cd1fd-f2cd-4cc2-b3ab-633315ade89f",
          "item": {
            "id": "arc-powercell",
            "icon": "https://cdn.metaforge.app/arc-raiders/icons/arc-powercell.webp",
            "name": "ARC Powercell",
            "rarity": "Common",
            "item_type": "Topside Material"
          },
          "item_id": "arc-powercell",
          "created_at": "2025-11-04T15:53:56.825634+00:00"
        },
        {
          "id": "89894907-8b09-42da-bf3a-c474e10e0a85",
          "item": {
            "id": "arc-motion-core",
            "icon": "https://cdn.metaforge.app/arc-raiders/icons/arc-motion-core.webp",
            "name": "ARC Motion Core",
            "rarity": "Rare",
            "item_type": "Topside Material"
          },
          "item_id": "arc-motion-core",
          "created_at": "2025-11-04T15:53:56.825634+00:00"
        },
        {
          "id": "364e4729-661a-4213-9b3c-cc601ef6c16f",
          "item": {
            "id": "arc-circuitry",
            "icon": "https://cdn.metaforge.app/arc-raiders/icons/arc-circuitry.webp",
            "name": "ARC Circuitry",
            "rarity": "Rare",
            "item_type": "Topside Material"
          },
          "item_id": "arc-circuitry",
          "created_at": "2025-11-04T15:53:56.825634+00:00"
        },
        {
          "id": "d4aaa728-f53f-4108-b37b-e9db626ef700",
          "item": {
            "id": "bastion-part",
            "icon": "https://cdn.metaforge.app/arc-raiders/icons/bastion-part.webp",
            "name": "Bastion Cell",
            "rarity": "Epic",
            "item_type": "Recyclable"
          },
          "item_id": "bastion-part",
          "created_at": "2025-11-04T15:53:56.825634+00:00"
        },
        {
          "id": "2368cd99-061c-44cd-a5cf-162b3129ac09",
          "item": {
            "id": "advanced-arc-powercell",
            "icon": "https://cdn.metaforge.app/arc-raiders/icons/advanced-arc-powercell.webp",
            "name": "Advanced ARC Powercell",
            "rarity": "Rare",
            "item_type": "Topside Material"
          },
          "item_id": "advanced-arc-powercell",
          "created_at": "2025-11-04T15:53:56.825634+00:00"
        },
        {
          "id": "f16c35fe-c9fe-4ffc-9dc2-275aba5f1242",
          "item": {
            "id": "mechanical-components",
            "icon": "https://cdn.metaforge.app/arc-raiders/icons/mechanical-components.webp",
            "name": "Mechanical Components",
            "rarity": "Uncommon",
            "item_type": "Refined Material"
          },
          "item_id": "mechanical-components",
          "created_at": "2025-11-04T15:53:56.825634+00:00"
        },
        {
          "id": "c649d1e2-69a3-453d-9585-94e81777b2e8",
          "item": {
            "id": "medium-gun-parts",
            "icon": "https://cdn.metaforge.app/arc-raiders/icons/medium-gun-parts.webp",
            "name": "Medium Gun Parts",
            "rarity": "Rare",
            "item_type": "Topside Material"
          },
          "item_id": "medium-gun-parts",
          "created_at": "2025-11-04T15:53:56.825634+00:00"
        },
        {
          "id": "87bb0237-527e-41ee-8b62-f79ce5c61728",
          "item": {
            "id": "medium-ammo",
            "icon": "https://cdn.metaforge.app/arc-raiders/icons/medium-ammo.webp",
            "name": "Medium Ammo",
            "rarity": "Common",
            "item_type": "Ammunition"
          },
          "item_id": "medium-ammo",
          "created_at": "2025-11-04T15:53:56.825634+00:00"
        }
      ]
    },
    {
      "id": "bombardier",
      "name": "Bombardier",
      "description": "The Bombardier is an armored ARC that functions as heavy, mobile artillery. Its movement is slow and loud. Armed with a multi-rocket launcher, it unleashes devastating, long-range barrages that can obliterate your entire squad. Do not engage this unit. If you hear its grinding approach, silence your movement and escape the area immediately, as its attention is a death sentence.",
      "icon": "https://unhbvkszwhczbjxgetgk.supabase.co/storage/v1/object/public/images/arc-raiders/icons/bombardier.webp",
      "image": "https://cdn.metaforge.app/arc-raiders/images/bombardier.webp",
      "created_at": "2025-10-22T14:25:32.537307+00:00",
      "updated_at": "2026-02-09T15:49:04.408481+00:00",
      "loot": [
        {
          "id": "5b2a02f8-a799-46fd-bc0c-cdb31ffcdb64",
          "item": {
            "id": "arc-alloy",
            "icon": "https://cdn.metaforge.app/arc-raiders/icons/arc-alloy.webp",
            "name": "ARC Alloy",
            "rarity": "Uncommon",
            "item_type": "Topside Material"
          },
          "item_id": "arc-alloy",
          "created_at": "2026-02-09T15:49:04.756153+00:00"
        },
        {
          "id": "c8a3b389-2651-4755-bb99-0584c9395192",
          "item": {
            "id": "arc-powercell",
            "icon": "https://cdn.metaforge.app/arc-raiders/icons/arc-powercell.webp",
            "name": "ARC Powercell",
            "rarity": "Common",
            "item_type": "Topside Material"
          },
          "item_id": "arc-powercell",
          "created_at": "2026-02-09T15:49:04.756153+00:00"
        },
        {
          "id": "c7b8c9bc-1e7c-42f4-9860-55a622bd0302",
          "item": {
            "id": "arc-performance-steel",
            "icon": "https://cdn.metaforge.app/arc-raiders/icons/arc-performance-steel.webp",
            "name": "ARC Performance Steel",
            "rarity": "Rare",
            "item_type": "Recyclable"
          },
          "item_id": "arc-performance-steel",
          "created_at": "2026-02-09T15:49:04.756153+00:00"
        },
        {
          "id": "7245786a-871e-4944-abb1-c9df8af65b3e",
          "item": {
            "id": "advanced-arc-powercell",
            "icon": "https://cdn.metaforge.app/arc-raiders/icons/advanced-arc-powercell.webp",
            "name": "Advanced ARC Powercell",
            "rarity": "Rare",
            "item_type": "Topside Material"
          },
          "item_id": "advanced-arc-powercell",
          "created_at": "2026-02-09T15:49:04.756153+00:00"
        },
        {
          "id": "b47b1aaa-9069-4755-b571-1fe1cfcd818b",
          "item": {
            "id": "mechanical-components",
            "icon": "https://cdn.metaforge.app/arc-raiders/icons/mechanical-components.webp",
            "name": "Mechanical Components",
            "rarity": "Uncommon",
            "item_type": "Refined Material"
          },
          "item_id": "mechanical-components",
          "created_at": "2026-02-09T15:49:04.756153+00:00"
        },
        {
          "id": "8d9250d9-3985-4a6e-9d33-7453bfef0553",
          "item": {
            "id": "medium-gun-parts",
            "icon": "https://cdn.metaforge.app/arc-raiders/icons/medium-gun-parts.webp",
            "name": "Medium Gun Parts",
            "rarity": "Rare",
            "item_type": "Topside Material"
          },
          "item_id": "medium-gun-parts",
          "created_at": "2026-02-09T15:49:04.756153+00:00"
        },
        {
          "id": "89ad3962-e730-4188-aaa5-5e789bf6e85b",
          "item": {
            "id": "bombardier-cell",
            "icon": "https://cdn.metaforge.app/arc-raiders/icons/bombardier-cell.webp",
            "name": "Bombardier Cell",
            "rarity": "Epic",
            "item_type": "Recyclable"
          },
          "item_id": "bombardier-cell",
          "created_at": "2026-02-09T15:49:04.756153+00:00"
        },
        {
          "id": "f7a4db92-c96e-43c3-89fa-38fa925ccab5",
          "item": {
            "id": "launcher-ammo",
            "icon": "https://cdn.metaforge.app/arc-raiders/icons/launcher-ammo.webp",
            "name": "Launcher Ammo",
            "rarity": "Rare",
            "item_type": "Ammunition"
          },
          "item_id": "launcher-ammo",
          "created_at": "2026-02-09T15:49:04.756153+00:00"
        }
      ]
    },
    {
      "id": "comet",
      "name": "Comet",
      "description": "Often found guarding heavy machines, the Comet serves as a brutal deterrent against Raiders who attempt flanking tactics. When it acquires a target it accelerates with alarming speed, and triggers its self-destruct once it's near enough to guarantee damage.\n\nIts blast radius is generous and unforgiving, as grouped-up squads have learned the hard way. Its armor plating protects its core, but it opens up when it charges, exposing its vulnerable innards. However, even when exposed, hitting such a fast-moving weak spot requires a particularly skilled trigger finger.\n\nExperienced Raiders treat the Comet as a priority target, dropping it before engaging whatever it's protecting. The alternative is fighting a Bastion while a live bomb circles for an opening. Shani suspects ARC deployed them specifically in response to Raider flanking tactics - another sign that the machines are learning",
      "icon": "https://cdn.metaforge.app/arc-raiders/icons/comet.webp",
      "image": "https://cdn.metaforge.app/arc-raiders/images/comet.webp",
      "created_at": "2026-02-23T17:10:27.277136+00:00",
      "updated_at": "2026-02-24T19:03:58.830776+00:00",
      "loot": [
        {
          "id": "33007b1b-82e0-41fb-bd5c-d8838e6f11a6",
          "item": {
            "id": "comet-igniter",
            "icon": "https://cdn.metaforge.app/arc-raiders/icons/comet-igniter.webp",
            "name": "Comet Igniter",
            "rarity": "Rare",
            "item_type": "Recyclable"
          },
          "item_id": "comet-igniter",
          "created_at": "2026-02-24T19:03:59.222558+00:00"
        },
        {
          "id": "8a54105c-90a1-4697-a643-af5650907a91",
          "item": {
            "id": "arc-alloy",
            "icon": "https://cdn.metaforge.app/arc-raiders/icons/arc-alloy.webp",
            "name": "ARC Alloy",
            "rarity": "Uncommon",
            "item_type": "Topside Material"
          },
          "item_id": "arc-alloy",
          "created_at": "2026-02-24T19:03:59.222558+00:00"
        },
        {
          "id": "ad76eae2-fe33-47c3-af0f-9acb292c1549",
          "item": {
            "id": "crude-explosives",
            "icon": "https://cdn.metaforge.app/arc-raiders/icons/crude-explosives.webp",
            "name": "Crude Explosives",
            "rarity": "Uncommon",
            "item_type": "Refined Material"
          },
          "item_id": "crude-explosives",
          "created_at": "2026-02-24T19:03:59.222558+00:00"
        },
        {
          "id": "cb68bb97-bd61-4988-8e7f-cecef71b5b29",
          "item": {
            "id": "advanced-arc-powercell",
            "icon": "https://cdn.metaforge.app/arc-raiders/icons/advanced-arc-powercell.webp",
            "name": "Advanced ARC Powercell",
            "rarity": "Rare",
            "item_type": "Topside Material"
          },
          "item_id": "advanced-arc-powercell",
          "created_at": "2026-02-24T19:03:59.222558+00:00"
        },
        {
          "id": "ef900a23-6b55-421e-9b46-55c77ee287e9",
          "item": {
            "id": "explosive-compound",
            "icon": "https://cdn.metaforge.app/arc-raiders/icons/explosive-compound.webp",
            "name": "Explosive Compound",
            "rarity": "Rare",
            "item_type": "Refined Material"
          },
          "item_id": "explosive-compound",
          "created_at": "2026-02-24T19:03:59.222558+00:00"
        },
        {
          "id": "f753b533-3736-4735-b9e6-4a9f842cafc0",
          "item": {
            "id": "arc-coolant",
            "icon": "https://cdn.metaforge.app/arc-raiders/icons/arc-coolant.webp",
            "name": "ARC Coolant",
            "rarity": "Rare",
            "item_type": "Recyclable"
          },
          "item_id": "arc-coolant",
          "created_at": "2026-02-24T19:03:59.222558+00:00"
        },
        {
          "id": "58bfa915-443f-408f-9c0b-4aec0ce2c3c4",
          "item": {
            "id": "arc-thermo-lining",
            "icon": "https://cdn.metaforge.app/arc-raiders/icons/arc-thermo-lining.webp",
            "name": "ARC Thermo Lining",
            "rarity": "Rare",
            "item_type": "Recyclable"
          },
          "item_id": "arc-thermo-lining",
          "created_at": "2026-02-24T19:03:59.222558+00:00"
        },
        {
          "id": "6eca8ac7-4e77-442f-8403-dea928a1c55d",
          "item": {
            "id": "electrical-components",
            "icon": "https://cdn.metaforge.app/arc-raiders/icons/electrical-components.webp",
            "name": "Electrical Components",
            "rarity": "Uncommon",
            "item_type": "Refined Material"
          },
          "item_id": "electrical-components",
          "created_at": "2026-02-24T19:03:59.222558+00:00"
        }
      ]
    }
  ],
  "pagination": {
    "page": 1,
    "limit": 3,
    "total": 19,
    "totalPages": 7,
    "hasNextPage": true,
    "hasPrevPage": false
  }
}