{
  "data": [
    {
      "id": "anvil-iii",
      "name": "Anvil III",
      "description": "Single-action hand cannon with high damage output and headshot damage, but slow handling.",
      "item_type": "Weapon",
      "loadout_slots": [
        "weapon"
      ],
      "icon": "https://cdn.metaforge.app/arc-raiders/icons/anvil-iii.webp",
      "rarity": "Uncommon",
      "value": 10000,
      "workbench": "Weapon Bench",
      "stat_block": {
        "range": 50.2,
        "damage": 40,
        "health": 0,
        "radius": 0,
        "shield": 0,
        "weight": 5,
        "agility": 69.1,
        "arcStun": 0,
        "healing": 0,
        "stamina": 0,
        "stealth": 10,
        "useTime": 0,
        "duration": 0,
        "fireRate": 16.3,
        "stability": 75.2,
        "stackSize": 0,
        "damageMult": 0,
        "raiderStun": 0,
        "weightLimit": 0,
        "augmentSlots": 0,
        "healingSlots": 0,
        "magazineSize": 6,
        "reducedNoise": 0,
        "shieldCharge": 0,
        "backpackSlots": 0,
        "quickUseSlots": 0,
        "damagePerSecond": 0,
        "movementPenalty": 0,
        "safePocketSlots": 0,
        "damageMitigation": 0,
        "healingPerSecond": 0,
        "reducedEquipTime": 0,
        "staminaPerSecond": 0,
        "increasedADSSpeed": 0,
        "increasedFireRate": 50,
        "reducedReloadTime": 0,
        "illuminationRadius": 0,
        "increasedEquipTime": 0,
        "reducedUnequipTime": 0,
        "shieldCompatibility": "",
        "increasedUnequipTime": 0,
        "reducedVerticalRecoil": 0,
        "increasedBulletVelocity": 0,
        "increasedVerticalRecoil": 0,
        "reducedMaxShotDispersion": 0,
        "reducedPerShotDispersion": 0,
        "reducedDurabilityBurnRate": null,
        "reducedRecoilRecoveryTime": 0,
        "increasedRecoilRecoveryTime": 0,
        "reducedDispersionRecoveryTime": 12.5
      },
      "flavor_text": "Very effective against ARC armor plating",
      "subcategory": "Pistol",
      "created_at": "2025-09-23T18:21:03.51415+00:00",
      "updated_at": "2026-01-31T06:29:13.011643+00:00",
      "shield_type": "",
      "loot_area": null,
      "sources": null,
      "ammo_type": "heavy",
      "locations": [],
      "guide_links": [],
      "game_asset_id": -9999,
      "components": [
        {
          "quantity": 1,
          "component": {
            "id": "anvil-ii",
            "icon": "https://cdn.metaforge.app/arc-raiders/icons/anvil-ii.webp",
            "name": "Anvil II",
            "rarity": "Uncommon",
            "item_type": "Weapon"
          }
        },
        {
          "quantity": 4,
          "component": {
            "id": "mechanical-components",
            "icon": "https://cdn.metaforge.app/arc-raiders/icons/mechanical-components.webp",
            "name": "Mechanical Components",
            "rarity": "Uncommon",
            "item_type": "Refined Material"
          }
        },
        {
          "quantity": 1,
          "component": {
            "id": "heavy-gun-parts",
            "icon": "https://cdn.metaforge.app/arc-raiders/icons/heavy-gun-parts.webp",
            "name": "Heavy Gun Parts",
            "rarity": "Rare",
            "item_type": "Topside Material"
          }
        }
      ],
      "used_in": [
        {
          "item": {
            "id": "anvil-iv",
            "icon": "https://cdn.metaforge.app/arc-raiders/icons/anvil-iv.webp",
            "name": "Anvil IV",
            "rarity": "Uncommon",
            "item_type": "Weapon",
            "description": "Single-action hand cannon with high damage output and headshot damage, but slow handling."
          },
          "quantity": 1
        }
      ],
      "recycle_components": [
        {
          "quantity": 4,
          "component": {
            "id": "mechanical-components",
            "icon": "https://cdn.metaforge.app/arc-raiders/icons/mechanical-components.webp",
            "name": "Mechanical Components",
            "rarity": "Uncommon",
            "item_type": "Refined Material",
            "description": "Used to craft a wide range of items. Can be recycled into crafting materials."
          }
        },
        {
          "quantity": 4,
          "component": {
            "id": "simple-gun-parts",
            "icon": "https://cdn.metaforge.app/arc-raiders/icons/simple-gun-parts.webp",
            "name": "Simple Gun Parts",
            "rarity": "Uncommon",
            "item_type": "Topside Material",
            "description": "Used to craft weapons. Can be recycled into scrap metal."
          }
        }
      ],
      "recycle_from": [],
      "mods": [
        {
          "mod": {
            "id": "anvil-splitter",
            "icon": "https://cdn.metaforge.app/arc-raiders/icons/anvil-splitter.webp",
            "name": "Anvil Splitter",
            "rarity": "Legendary",
            "item_type": "Modification"
          }
        },
        {
          "mod": {
            "id": "extended-barrel",
            "icon": "https://cdn.metaforge.app/arc-raiders/icons/extended-barrel.webp",
            "name": "Extended Barrel",
            "rarity": "Epic",
            "item_type": "Modification"
          }
        },
        {
          "mod": {
            "id": "heavy-ammo",
            "icon": "https://cdn.metaforge.app/arc-raiders/icons/heavy-ammo.webp",
            "name": "Heavy Ammo",
            "rarity": "Common",
            "item_type": "Ammunition"
          }
        }
      ],
      "dropped_by": [],
      "sold_by": []
    },
    {
      "id": "anvil-iv",
      "name": "Anvil IV",
      "description": "Single-action hand cannon with high damage output and headshot damage, but slow handling.",
      "item_type": "Weapon",
      "loadout_slots": [
        "weapon"
      ],
      "icon": "https://cdn.metaforge.app/arc-raiders/icons/anvil-iv.webp",
      "rarity": "Uncommon",
      "value": 13000,
      "workbench": null,
      "stat_block": {
        "range": 50.2,
        "damage": 40,
        "health": 0,
        "radius": 0,
        "shield": 0,
        "weight": 5,
        "agility": 69.1,
        "arcStun": 0,
        "healing": 0,
        "stamina": 0,
        "stealth": 10,
        "useTime": 0,
        "duration": 0,
        "fireRate": 16.3,
        "stability": 75.2,
        "stackSize": 0,
        "damageMult": 0,
        "raiderStun": 0,
        "weightLimit": 0,
        "augmentSlots": 0,
        "healingSlots": 0,
        "magazineSize": 6,
        "reducedNoise": 0,
        "shieldCharge": 0,
        "backpackSlots": 0,
        "quickUseSlots": 0,
        "damagePerSecond": 0,
        "movementPenalty": 0,
        "safePocketSlots": 0,
        "damageMitigation": 0,
        "healingPerSecond": 0,
        "reducedEquipTime": 0,
        "staminaPerSecond": 0,
        "increasedADSSpeed": 0,
        "increasedFireRate": 75,
        "reducedReloadTime": 0,
        "illuminationRadius": 0,
        "increasedEquipTime": 0,
        "reducedUnequipTime": 0,
        "shieldCompatibility": 0,
        "increasedUnequipTime": 0,
        "reducedVerticalRecoil": 0,
        "increasedBulletVelocity": 0,
        "increasedVerticalRecoil": 0,
        "reducedMaxShotDispersion": 0,
        "reducedPerShotDispersion": 0,
        "reducedDurabilityBurnRate": null,
        "reducedRecoilRecoveryTime": 0,
        "increasedRecoilRecoveryTime": 0,
        "reducedDispersionRecoveryTime": 18.75
      },
      "flavor_text": null,
      "subcategory": "Pistol",
      "created_at": "2025-09-23T18:21:03.51415+00:00",
      "updated_at": "2026-01-31T06:29:13.011643+00:00",
      "shield_type": null,
      "loot_area": "",
      "sources": null,
      "ammo_type": "Heavy",
      "locations": [],
      "guide_links": [],
      "game_asset_id": -9999,
      "components": [
        {
          "quantity": 4,
          "component": {
            "id": "mechanical-components",
            "icon": "https://cdn.metaforge.app/arc-raiders/icons/mechanical-components.webp",
            "name": "Mechanical Components",
            "rarity": "Uncommon",
            "item_type": "Refined Material"
          }
        },
        {
          "quantity": 1,
          "component": {
            "id": "heavy-gun-parts",
            "icon": "https://cdn.metaforge.app/arc-raiders/icons/heavy-gun-parts.webp",
            "name": "Heavy Gun Parts",
            "rarity": "Rare",
            "item_type": "Topside Material"
          }
        },
        {
          "quantity": 1,
          "component": {
            "id": "anvil-iii",
            "icon": "https://cdn.metaforge.app/arc-raiders/icons/anvil-iii.webp",
            "name": "Anvil III",
            "rarity": "Uncommon",
            "item_type": "Weapon"
          }
        }
      ],
      "used_in": [],
      "recycle_components": [
        {
          "quantity": 5,
          "component": {
            "id": "mechanical-components",
            "icon": "https://cdn.metaforge.app/arc-raiders/icons/mechanical-components.webp",
            "name": "Mechanical Components",
            "rarity": "Uncommon",
            "item_type": "Refined Material",
            "description": "Used to craft a wide range of items. Can be recycled into crafting materials."
          }
        },
        {
          "quantity": 5,
          "component": {
            "id": "simple-gun-parts",
            "icon": "https://cdn.metaforge.app/arc-raiders/icons/simple-gun-parts.webp",
            "name": "Simple Gun Parts",
            "rarity": "Uncommon",
            "item_type": "Topside Material",
            "description": "Used to craft weapons. Can be recycled into scrap metal."
          }
        }
      ],
      "recycle_from": [],
      "mods": [
        {
          "mod": {
            "id": "anvil-splitter",
            "icon": "https://cdn.metaforge.app/arc-raiders/icons/anvil-splitter.webp",
            "name": "Anvil Splitter",
            "rarity": "Legendary",
            "item_type": "Modification"
          }
        },
        {
          "mod": {
            "id": "extended-barrel",
            "icon": "https://cdn.metaforge.app/arc-raiders/icons/extended-barrel.webp",
            "name": "Extended Barrel",
            "rarity": "Epic",
            "item_type": "Modification"
          }
        },
        {
          "mod": {
            "id": "heavy-ammo",
            "icon": "https://cdn.metaforge.app/arc-raiders/icons/heavy-ammo.webp",
            "name": "Heavy Ammo",
            "rarity": "Common",
            "item_type": "Ammunition"
          }
        }
      ],
      "dropped_by": [],
      "sold_by": []
    },
    {
      "id": "anvil-splitter",
      "name": "Anvil Splitter",
      "description": "Compatible with: Anvil  - Tech mod for the Anvil that replaces its bullets with ones that split into 4 weaker projectiles.",
      "item_type": "Modification",
      "loadout_slots": [],
      "icon": "https://cdn.metaforge.app/arc-raiders/icons/anvil-splitter.webp",
      "rarity": "Legendary",
      "value": 7000,
      "workbench": "Gunsmith III",
      "stat_block": {
        "range": 0,
        "damage": 0,
        "health": 0,
        "radius": 0,
        "shield": 0,
        "weight": 0.5,
        "arcStun": 0,
        "healing": 0,
        "stamina": 0,
        "useTime": 0,
        "duration": 0,
        "fireRate": 0,
        "stability": 0,
        "stackSize": 1,
        "damageMult": 0,
        "raiderStun": 0,
        "weightLimit": 0,
        "augmentSlots": 0,
        "healingSlots": 0,
        "shieldCharge": 0,
        "backpackSlots": 0,
        "quickUseSlots": 0,
        "damagePerSecond": 0,
        "safePocketSlots": 0,
        "damageMitigation": 0,
        "healingPerSecond": 0,
        "staminaPerSecond": 0,
        "compatibleWeapons": "Anvil",
        "reducedReloadTime": 0,
        "illuminationRadius": 0,
        "projectilesPerShot": 3,
        "shieldCompatibility": "",
        "reducedProjectileDamage": 70,
        "reducedMaxShotDispersion": 0,
        "reducedDurabilityBurnRate": 0
      },
      "flavor_text": "",
      "subcategory": "",
      "created_at": "2025-10-09T07:54:31.061732+00:00",
      "updated_at": "2026-01-31T06:29:13.011643+00:00",
      "shield_type": "",
      "loot_area": "",
      "sources": null,
      "ammo_type": "",
      "locations": [],
      "guide_links": [],
      "game_asset_id": -9999,
      "components": [],
      "used_in": [],
      "recycle_components": [
        {
          "quantity": 1,
          "component": {
            "id": "mod-components",
            "icon": "https://cdn.metaforge.app/arc-raiders/icons/mod-components.webp",
            "name": "Mod Components",
            "rarity": "Rare",
            "item_type": "Refined Material",
            "description": "Used to craft weapon mods. Can be recycled into crafting materials."
          }
        },
        {
          "quantity": 1,
          "component": {
            "id": "processor",
            "icon": "https://cdn.metaforge.app/arc-raiders/icons/processor.webp",
            "name": "Processor",
            "rarity": "Rare",
            "item_type": "Topside Material",
            "description": "Used in crafting."
          }
        }
      ],
      "recycle_from": [],
      "mods": [],
      "dropped_by": [],
      "sold_by": []
    },
    {
      "id": "aphelion-rifle",
      "name": "Aphelion Rifle",
      "description": "Fires high velocity energy rounds.",
      "item_type": "Weapon",
      "loadout_slots": [],
      "icon": "https://cdn.metaforge.app/arc-raiders/icons/aphelion-rifle.webp",
      "rarity": "Legendary",
      "value": 27500,
      "workbench": null,
      "stat_block": {
        "range": 0,
        "damage": 0,
        "health": 0,
        "radius": 0,
        "shield": 0,
        "weight": 10,
        "agility": 0,
        "arcStun": 0,
        "healing": 0,
        "stamina": 0,
        "stealth": 0,
        "useTime": 0,
        "duration": 0,
        "fireRate": 0,
        "stability": 0,
        "stackSize": 0,
        "damageMult": 0,
        "raiderStun": 0,
        "weightLimit": 0,
        "augmentSlots": 0,
        "healingSlots": 0,
        "magazineSize": 10,
        "reducedNoise": 0,
        "shieldCharge": 0,
        "backpackSlots": 0,
        "quickUseSlots": 0,
        "damagePerSecond": 0,
        "movementPenalty": 0,
        "safePocketSlots": 0,
        "damageMitigation": 0,
        "healingPerSecond": 0,
        "reducedEquipTime": 0,
        "staminaPerSecond": 0,
        "increasedADSSpeed": 0,
        "increasedFireRate": 0,
        "reducedReloadTime": 0,
        "illuminationRadius": 0,
        "increasedEquipTime": 0,
        "reducedUnequipTime": 0,
        "shieldCompatibility": "",
        "increasedUnequipTime": 0,
        "reducedVerticalRecoil": 0,
        "increasedBulletVelocity": 0,
        "increasedVerticalRecoil": 0,
        "reducedMaxShotDispersion": 0,
        "reducedPerShotDispersion": 0,
        "reducedDurabilityBurnRate": 0,
        "reducedRecoilRecoveryTime": 0,
        "increasedRecoilRecoveryTime": 0,
        "reducedDispersionRecoveryTime": 0
      },
      "flavor_text": "",
      "subcategory": "",
      "created_at": "2025-11-13T10:37:20.642755+00:00",
      "updated_at": "2026-01-31T06:29:13.011643+00:00",
      "shield_type": "",
      "loot_area": "",
      "sources": null,
      "ammo_type": "energy",
      "locations": [],
      "guide_links": [],
      "game_asset_id": -9999,
      "components": [
        {
          "quantity": 3,
          "component": {
            "id": "magnetic-accelerator",
            "icon": "https://cdn.metaforge.app/arc-raiders/icons/magnetic-accelerator.webp",
            "name": "Magnetic Accelerator",
            "rarity": "Epic",
            "item_type": "Refined Material"
          }
        },
        {
          "quantity": 3,
          "component": {
            "id": "complex-gun-parts",
            "icon": "https://cdn.metaforge.app/arc-raiders/icons/complex-gun-parts.webp",
            "name": "Complex Gun Parts",
            "rarity": "Epic",
            "item_type": "Topside Material"
          }
        },
        {
          "quantity": 1,
          "component": {
            "id": "matriarch-reactor",
            "icon": "https://cdn.metaforge.app/arc-raiders/icons/matriarch-reactor.webp",
            "name": "Matriarch Reactor",
            "rarity": "Legendary",
            "item_type": "Recyclable"
          }
        }
      ],
      "used_in": [],
      "recycle_components": [
        {
          "quantity": 2,
          "component": {
            "id": "magnetic-accelerator",
            "icon": "https://cdn.metaforge.app/arc-raiders/icons/magnetic-accelerator.webp",
            "name": "Magnetic Accelerator",
            "rarity": "Epic",
            "item_type": "Refined Material",
            "description": "Used to craft advanced weapons."
          }
        },
        {
          "quantity": 1,
          "component": {
            "id": "complex-gun-parts",
            "icon": "https://cdn.metaforge.app/arc-raiders/icons/complex-gun-parts.webp",
            "name": "Complex Gun Parts",
            "rarity": "Epic",
            "item_type": "Topside Material",
            "description": "Used to craft advanced weapons."
          }
        }
      ],
      "recycle_from": [],
      "mods": [],
      "dropped_by": [],
      "sold_by": []
    },
    {
      "id": "aphelion-rifle-blueprint",
      "name": "Aphelion Rifle Blueprint",
      "description": "Lets you craft an Aphelion Rifle",
      "item_type": "Blueprint",
      "loadout_slots": [],
      "icon": "https://cdn.metaforge.app/arc-raiders/icons/aphelion-rifle-blueprint.webp",
      "rarity": "Legendary",
      "value": 5000,
      "workbench": null,
      "stat_block": {
        "range": 0,
        "damage": 0,
        "health": 0,
        "radius": 0,
        "shield": 0,
        "weight": 0,
        "agility": 0,
        "arcStun": 0,
        "healing": 0,
        "stamina": 0,
        "stealth": 0,
        "useTime": 0,
        "duration": 0,
        "fireRate": 0,
        "stability": 0,
        "stackSize": 0,
        "damageMult": 0,
        "raiderStun": 0,
        "weightLimit": 0,
        "augmentSlots": 0,
        "healingSlots": 0,
        "magazineSize": 0,
        "reducedNoise": 0,
        "shieldCharge": 0,
        "backpackSlots": 0,
        "quickUseSlots": 0,
        "damagePerSecond": 0,
        "movementPenalty": 0,
        "safePocketSlots": 0,
        "damageMitigation": 0,
        "healingPerSecond": 0,
        "reducedEquipTime": 0,
        "staminaPerSecond": 0,
        "increasedADSSpeed": 0,
        "increasedFireRate": 0,
        "reducedReloadTime": 0,
        "illuminationRadius": 0,
        "increasedEquipTime": 0,
        "reducedUnequipTime": 0,
        "shieldCompatibility": "",
        "increasedUnequipTime": 0,
        "reducedVerticalRecoil": 0,
        "increasedBulletVelocity": 0,
        "increasedVerticalRecoil": 0,
        "reducedMaxShotDispersion": 0,
        "reducedPerShotDispersion": 0,
        "reducedDurabilityBurnRate": 0,
        "reducedRecoilRecoveryTime": 0,
        "increasedRecoilRecoveryTime": 0,
        "reducedDispersionRecoveryTime": 0
      },
      "flavor_text": "",
      "subcategory": "",
      "created_at": "2025-11-13T10:37:57.481584+00:00",
      "updated_at": "2026-01-31T06:29:13.011643+00:00",
      "shield_type": "",
      "loot_area": "",
      "sources": null,
      "ammo_type": "",
      "locations": [],
      "guide_links": [],
      "game_asset_id": -9999,
      "components": [],
      "used_in": [],
      "recycle_components": [],
      "recycle_from": [],
      "mods": [],
      "dropped_by": [
        {
          "id": "b74f6ab3-9420-4acf-9cc5-5293f96039bd",
          "arc": {
            "id": "matriarch",
            "icon": "https://cdn.metaforge.app/arc-raiders/icons/matriarch.webp",
            "name": "Matriarch",
            "description": "The head of the Family. This ARC shoots rockets, gas and has big shield. She will also spawn her Leapers, Bastions, Fireballs, Hornets and Wasps."
          },
          "arc_id": "matriarch",
          "created_at": "2025-12-09T15:31:05.007044+00:00"
        }
      ],
      "sold_by": []
    }
  ],
  "maxValue": 27500,
  "pagination": {
    "page": 5,
    "limit": 5,
    "total": 527,
    "totalPages": 106,
    "hasNextPage": true,
    "hasPrevPage": true
  }
}